…
``` r
tch_recipe <- recipe(tch_real ~ ., data = tch_train ) %>%  
  step_normalize(all_numeric_predictors())  %>% 
  #step_novel(all_nominal_predictors()) %>% 
  step_zv(all_predictors())  #%>%
  #step_naomit(c(Ts, Us)) %>% 
  #step_impute_mean(c(Us,Ts)) %>% 
  #step_poly(c(ms,ts), degree = 5)  
  #step_dummy(all_nominal_predictors())
bake(prep(tch_recipe), new_data = NULL)
#> # A tibble: 14,842 × 18
#>         atr corte variedade    mes    ca_2     m_2    sb_2 idade_real    ctc_2
#>       <dbl> <fct> <fct>      <dbl>   <dbl>   <dbl>   <dbl>      <dbl>    <dbl>
#>  1  0.719   3ºC   RB92579   -0.633 -0.595  -0.294  -0.743     -1.39   -0.915  
#>  2  0.651   2ºC   CV7870     1.15  -0.477   0.524  -0.288     -1.04   -0.231  
#>  3  0.690   15m   RB966928  -1.08  -0.0370 -0.531  -0.0760    -0.369  -0.00567
#>  4  0.00527 18m   CV7870    -0.633 -0.210  -0.442   0.235      0.509  -0.330  
#>  5 -0.709   4ºCB  RB867515  -1.97  -1.09    1.09   -1.27       0.720  -0.851  
#>  6  0.585   18m   CTC4       0.256  0.583  -0.639   0.367      0.474   0.337  
#>  7  1.05    15m   CTC4      -0.188 -0.159  -0.368  -0.0702     2.93   -0.283  
#>  8  0.558   5ºC   RB867515   1.59  -0.533   0.0662 -0.275      0.509  -0.384  
#>  9 -0.471   3ºC   RB966928   0.256 -0.354  -0.152  -0.604      0.0172 -0.631  
#> 10  0.0526  18m   RB92579   -1.52  -0.544  -0.232  -0.229     -0.615  -0.427  
#> # ℹ 14,832 more rows
#> # ℹ 9 more variables: p_resina_2 <dbl>, h_al_2 <dbl>, v_2 <dbl>, k_2 <dbl>,
#> #   mg_2 <dbl>, mo_2 <dbl>, ph_cacl2_2 <dbl>, s_2 <dbl>, tch_real <dbl>
```
…
``` r
tch_recipe <- recipe(tch_real ~ ., data = tch_train ) %>%  
  step_normalize(all_numeric_predictors())  %>% 
  #step_novel(all_nominal_predictors()) %>% 
  step_zv(all_predictors())  #%>%
  #step_naomit(c(Ts, Us)) %>% 
  #step_impute_mean(c(Us,Ts)) %>% 
  #step_poly(c(ms,ts), degree = 5)  
  #step_dummy(all_nominal_predictors())
bake(prep(tch_recipe), new_data = NULL)
#> # A tibble: 23,072 × 18
#>        atr corte variedade    mes    ca_2     m_2    sb_2 idade_real   ctc_2
#>      <dbl> <fct> <fct>      <dbl>   <dbl>   <dbl>   <dbl>      <dbl>   <dbl>
#>  1 -0.856  18m   CTC4      -1.09   0.0333  0.534  -0.0988    -0.0362  0.623 
#>  2  0.593  18m   CV7870    -0.642 -0.715   1.93   -0.848      0.0371  0.434 
#>  3 -0.472  15m   RB92579   -0.642 -0.861  -0.239  -1.08      -0.476  -1.55  
#>  4  0.771  3ºC   RB966928  -0.192  0.0311 -0.593   0.0750    -0.403  -0.340 
#>  5  0.472  18m   RB92579   -0.642 -0.0808  0.463  -0.0332     1.28    0.0937
#>  6 -0.828  3ºC   outro     -0.192 -0.183  -0.588  -0.231      0.147  -0.564 
#>  7 -0.657  3ºC   RB867515   0.257 -0.146  -0.518  -0.175      0.110  -0.553 
#>  8 -1.02   18m   RB966928  -1.09  -0.414   0.374  -0.650     -0.109  -0.539 
#>  9  0.0418 3ºC   RB966928  -1.09  -0.141  -0.281  -0.446     -0.769  -0.720 
#> 10 -0.0415 3ºC   IACSP9550  1.61   1.61   -0.0190  1.60       0.220   2.03  
#> # ℹ 23,062 more rows
#> # ℹ 9 more variables: p_resina_2 <dbl>, h_al_2 <dbl>, v_2 <dbl>, k_2 <dbl>,
#> #   mg_2 <dbl>, mo_2 <dbl>, ph_cacl2_2 <dbl>, s_2 <dbl>, tch_real <dbl>
```
…
